netflix
…
netflix %>% count(listed_in)

## # A tibble: 492 x 2
##    listed_in                                                        n
##    <chr>                                                        <int>
##  1 Action & Adventure                                              99
##  2 Action & Adventure, Anime Features, Children & Family Movies     3
##  3 Action & Adventure, Anime Features, Classic Movies               1
##  4 Action & Adventure, Anime Features, Horror Movies                1
##  5 Action & Adventure, Anime Features, International Movies        28
##  6 Action & Adventure, Anime Features, Sci-Fi & Fantasy             5
##  7 Action & Adventure, Children & Family Movies                     2
##  8 Action & Adventure, Children & Family Movies, Classic Movies     3
##  9 Action & Adventure, Children & Family Movies, Comedies           4
## 10 Action & Adventure, Children & Family Movies, Dramas             2
## #  with 482 more rows
…
